{"request":
{"Target":"Report","Format":"json","Service":"HasOffers","Version":"2","NetworkId":"amazecell","Method":"getConversions","NetworkToken":"NETnrEYg3AY7fEjr2tHgVzUgkv2p2Z","fields":["Stat.advertiser_id","Stat.affiliate_id","Stat.offer_id","Stat.ad_id","Stat.session_ip","Stat.country_code","Stat.session_datetime"],"groups":["Stat.advertiser_id","Stat.affiliate_id","Stat.offer_id","Stat.country_code"],"data_start":"2016-03-01","data_end":"2016-03-03"},
  "response":{"status":1,"httpStatus":200,"data":{"page":1,"current":100,"count":35539,"pageCount":356,
    "data":
    [
      {"Stat":
      {"advertiser_id":"0","affiliate_id":"1","offer_id":"3178","ad_id":"102e4d6c845169e6e53abe079027d7","session_ip":"213.46.154.165","country_code":"NL","session_datetime":"2012-06-10 14:07:35"}},
      {"Stat":
      {"advertiser_id":"0","affiliate_id":"1","offer_id":"5183","ad_id":"1027e5ad61922fd737990ade4d2d00","session_ip":"109.188.127.61","country_code":"RU","session_datetime":"2013-12-09 06:46:09"}},
      {"Stat":
      {"advertiser_id":"0","affiliate_id":"1","offer_id":"6295","ad_id":"102bee356298e21cc3822d5bfe2437","session_ip":"213.171.197.181","country_code":"UK","session_datetime":"2014-02-06 11:06:43"}},
      {"Stat":{"advertiser_id":"0","affiliate_id":"1","offer_id":"7773","ad_id":"102a5c9413d9ee4ed7bee02f74405a","session_ip":"79.140.8.16","country_code":"UA","session_datetime":"2014-05-29 07:17:45"}},{"Stat":{"advertiser_id":"0","affiliate_id":"1","offer_id":"7965","ad_id":"102160d571ee4458d947eb7424140b","session_ip":"212.179.64.193","country_code":"IL","session_datetime":"2014-06-19 03:14:49"}},{"Stat":{"advertiser_id":"0","affiliate_id":"1","offer_id":"7967","ad_id":"102652219811f32331899d128d5ce5","session_ip":"81.218.177.53","country_code":"IL","session_datetime":"2014-06-19 03:23:30"}},{"Stat":{"advertiser_id":"0","affiliate_id":"1","offer_id":"8069","ad_id":"1029d196fa125f6af0c200734ba11b","session_ip":"46.19.86.213","country_code":"IL","session_datetime":"2014-07-01 10:15:45"}},{"Stat":{"advertiser_id":"0","affiliate_id":"1003","offer_id":"1","ad_id":"22112742651101222","session_ip":"221.127.42.65","country_code":"HK","session_datetime":"2010-12-22 02:55:52"}},{"Stat":{"advertiser_id":"0","affiliate_id":"1003","offer_id":"1","ad_id":"12897403569211949014770","session_ip":"194.90.147.70","country_code":"IL","session_datetime":"2010-11-14 08:16:11"}},{"Stat":{"advertiser_id":"0","affiliate_id":"1003","offer_id":"4","ad_id":"82811991844101219","session_ip":"82.81.199.184","country_code":"IL","session_datetime":"2010-12-19 17:27:44"}},{"Stat":{"advertiser_id":"0","affiliate_id":"1005","offer_id":"1","ad_id":"85652552251101125","session_ip":"85.65.255.225","country_code":"IL","session_datetime":"2010-11-25 11:31:34"}},{"Stat":{"advertiser_id":"0","affiliate_id":"1005","offer_id":"2","ad_id":"95861022472101121","session_ip":"95.86.102.247","country_code":"IL","session_datetime":"2010-11-21 15:00:23"}},{"Stat":{"advertiser_id":"0","affiliate_id":"1005","offer_id":"3","ad_id":"212235671913101124","session_ip":"212.235.67.191","country_code":"IL","session_datetime":"2010-11-24 08:35:36"}},{"Stat":{"advertiser_id":"0","affiliate_id":"1005","offer_id":"4","ad_id":"1037e2fc5cdf9793732314929dd578","session_ip":"10.98.4.228","country_code":"**","session_datetime":"2011-05-26 03:48:47"}},{"Stat":{"advertiser_id":"0","affiliate_id":"1005","offer_id":"4","ad_id":"622191391474101121","session_ip":"62.219.139.147","country_code":"IL","session_datetime":"2010-11-21 07:42:33"}},{"Stat":{"advertiser_id":"0","affiliate_id":"1005","offer_id":"5","ad_id":"1037dd28ce01503e6f69232dc311fc","session_ip":"84.111.9.69","country_code":"IL","session_datetime":"2011-06-09 11:16:23"}},{"Stat":{"advertiser_id":"0","affiliate_id":"1005","offer_id":"6","ad_id":"12898046884141949014770","session_ip":"194.90.147.70","country_code":"IL","session_datetime":"2020-10-11 15:20:44"}},{"Stat":{"advertiser_id":"0","affiliate_id":"1005","offer_id":"8","ad_id":"7918138538101122","session_ip":"79.181.38.53","country_code":"IL","session_datetime":"2010-11-22 00:19:47"}},{"Stat":{"advertiser_id":"0","affiliate_id":"1005","offer_id":"11","ad_id":"8420813413311101121","session_ip":"84.208.134.133","country_code":"NO","session_datetime":"2010-11-21 15:44:48"}},{"Stat":{"advertiser_id":"0","affiliate_id":"1005","offer_id":"12","ad_id":"93185171312101117","session_ip":"93.185.171.3","country_code":"NO","session_datetime":"2020-10-11 17:45:53"}},{"Stat":{"advertiser_id":"0","affiliate_id":"1005","offer_id":"12","ad_id":"1d73158cb67dfff75e6c95b263285e","session_ip":"164.9.102.4","country_code":"SE","session_datetime":"2011-02-28 01:31:00"}},{"Stat":{"advertiser_id":"0","affiliate_id":"1005","offer_id":"13","ad_id":"8525221914913101227","session_ip":"85.252.219.149","country_code":"NO","session_datetime":"2010-12-27 14:35:56"}},{"Stat":{"advertiser_id":"0","affiliate_id":"1005","offer_id":"17","ad_id":"12899844348941949014770","session_ip":"194.90.147.70","country_code":"IL","session_datetime":"2020-10-11 17:40:03"}},{"Stat":{"advertiser_id":"0","affiliate_id":"1005","offer_id":"18","ad_id":"21310075318110129","session_ip":"213.100.75.3","country_code":"SE","session_datetime":"2011-01-29 06:04:39"}},{"Stat":{"advertiser_id":"0","affiliate_id":"1005","offer_id":"20","ad_id":"911526513720101130","session_ip":"91.152.65.137","country_code":"FI","session_datetime":"2010-11-30 07:20:22"}},{"Stat":{"advertiser_id":"0","affiliate_id":"1005","offer_id":"21","ad_id":"879314515021101130","session_ip":"87.93.145.150","country_code":"FI","session_datetime":"2010-11-30 18:46:38"}},{"Stat":{"advertiser_id":"0","affiliate_id":"1005","offer_id":"24","ad_id":"12899843705211949014770","session_ip":"194.90.147.70","country_code":"IL","session_datetime":"2010-11-17 04:10:15"}},{"Stat":{"advertiser_id":"0","affiliate_id":"1005","offer_id":"24","ad_id":"845222019424110102","session_ip":"84.52.220.194","country_code":"NO","session_datetime":"2011-01-02 13:30:14"}},{"Stat":{"advertiser_id":"0","affiliate_id":"1005","offer_id":"26","ad_id":"edda6dbec3eea338e24a27ef91bd45","session_ip":"84.108.2.35","country_code":"IL","session_datetime":"2011-04-17 19:17:05"}},{"Stat":{"advertiser_id":"0","affiliate_id":"1005","offer_id":"27","ad_id":"88901714827110116","session_ip":"88.90.171.48","country_code":"NO","session_datetime":"2011-01-16 09:05:10"}},{"Stat":{"advertiser_id":"0","affiliate_id":"1005","offer_id":"35","ad_id":"8119118118535110220","session_ip":"81.191.181.185","country_code":"NO","session_datetime":"2011-02-20 11:45:36"}},{"Stat":{"advertiser_id":"0","affiliate_id":"1005","offer_id":"38","ad_id":"85225518238110130","session_ip":"85.225.5.182","country_code":"SE","session_datetime":"2011-01-30 15:04:12"}},{"Stat":{"advertiser_id":"0","affiliate_id":"1005","offer_id":"64","ad_id":"ee0a0d6905cd1f81339d7a5842ed9b","session_ip":"72.150.245.94","country_code":"US","session_datetime":"2011-03-01 13:22:38"}},{"Stat":{"advertiser_id":"0","affiliate_id":"1005","offer_id":"83","ad_id":"103d00ac538325796d61dd2a2e8680","session_ip":"87.70.174.97","country_code":"IL","session_datetime":"2011-09-12 00:57:51"}},{"Stat":{"advertiser_id":"0","affiliate_id":"1005","offer_id":"84","ad_id":"b60a3dc21bfcbd4876ac3f52277947","session_ip":"46.66.254.183","country_code":"NO","session_datetime":"2011-04-12 18:37:06"}},{"Stat":{"advertiser_id":"0","affiliate_id":"1005","offer_id":"87","ad_id":"75e4392202d95c1353e22265e755ca","session_ip":"68.83.0.158","country_code":"US","session_datetime":"2011-04-13 18:01:48"}},{"Stat":{"advertiser_id":"0","affiliate_id":"1005","offer_id":"113","ad_id":"103b26cafe5813af7b62c21bef41e9","session_ip":"84.48.215.130","country_code":"NO","session_datetime":"2011-07-28 21:16:48"}},{"Stat":{"advertiser_id":"0","affiliate_id":"1005","offer_id":"138","ad_id":"103e291ff41683b322a20af3fe85ca","session_ip":"85.93.248.53","country_code":"NO","session_datetime":"2011-07-13 13:51:57"}},{"Stat":{"advertiser_id":"0","affiliate_id":"1005","offer_id":"152","ad_id":"1031c715fff4087758b7ce2b2d5ca8","session_ip":"93.175.33.173","country_code":"IL","session_datetime":"2011-07-29 06:36:00"}},{"Stat":{"advertiser_id":"0","affiliate_id":"1005","offer_id":"153","ad_id":"103797878851e581acdd0c74506c09","session_ip":"89.139.48.108","country_code":"IL","session_datetime":"2011-07-29 11:07:49"}},{"Stat":{"advertiser_id":"0","affiliate_id":"1005","offer_id":"155","ad_id":"103610997cc54a3af3d795ab971131","session_ip":"84.205.33.195","country_code":"NO","session_datetime":"2011-08-05 10:12:25"}},{"Stat":{"advertiser_id":"0","affiliate_id":"1005","offer_id":"205","ad_id":"1024a3bb8d18b46f08f21c60f3b306","session_ip":"80.202.82.188","country_code":"NO","session_datetime":"2012-01-11 12:57:41"}},{"Stat":{"advertiser_id":"0","affiliate_id":"1005","offer_id":"370","ad_id":"102d851a1a796a9223e72156683045","session_ip":"92.14.248.140","country_code":"UK","session_datetime":"2012-04-19 05:29:33"}},{"Stat":{"advertiser_id":"0","affiliate_id":"1005","offer_id":"372","ad_id":"10248413056b0753947a7758530825","session_ip":"92.20.177.5","country_code":"UK","session_datetime":"2012-02-07 06:31:31"}},{"Stat":{"advertiser_id":"0","affiliate_id":"1005","offer_id":"376","ad_id":"1025a2e6f0f0ac3ddb2acf057651ed","session_ip":"89.207.208.1","country_code":"UK","session_datetime":"2012-04-19 06:36:19"}},{"Stat":{"advertiser_id":"0","affiliate_id":"1007","offer_id":"90","ad_id":"103a5eaee2911fe485118dc471a4bb","session_ip":"194.90.147.70","country_code":"IL","session_datetime":"2011-06-13 09:47:40"}},{"Stat":{"advertiser_id":"0","affiliate_id":"1007","offer_id":"157","ad_id":"103d9340dfa0429373d995dd6ea586","session_ip":"194.90.147.70","country_code":"IL","session_datetime":"2011-08-10 08:42:31"}},{"Stat":{"advertiser_id":"0","affiliate_id":"1011","offer_id":"12","ad_id":"19490147700101221","session_ip":"194.90.147.70","country_code":"IL","session_datetime":"2010-12-21 07:43:28"}},{"Stat":{"advertiser_id":"0","affiliate_id":"1011","offer_id":"12","ad_id":"173101061610110104","session_ip":"173.10.106.161","country_code":"US","session_datetime":"2011-01-04 14:05:53"}},{"Stat":{"advertiser_id":"0","affiliate_id":"1011","offer_id":"24","ad_id":"194901477024101222","session_ip":"194.90.147.70","country_code":"IL","session_datetime":"2010-12-22 02:26:35"}},{"Stat":{"advertiser_id":"0","affiliate_id":"1015","offer_id":"27","ad_id":"19490147700101221","session_ip":"194.90.147.70","country_code":"IL","session_datetime":"2010-12-21 07:43:46"}},{"Stat":{"advertiser_id":"0","affiliate_id":"1022","offer_id":"12","ad_id":"834010312312101222","session_ip":"83.40.103.123","country_code":"ES","session_datetime":"2010-12-22 05:34:40"}},{"Stat":{"advertiser_id":"0","affiliate_id":"1022","offer_id":"12","ad_id":"1091899020512101220","session_ip":"109.189.90.205","country_code":"NO","session_datetime":"2010-12-20 05:25:05"}},{"Stat":{"advertiser_id":"0","affiliate_id":"1022","offer_id":"12","ad_id":"193130381512101220","session_ip":"193.130.38.15","country_code":"UK","session_datetime":"2010-12-20 09:00:23"}},{"Stat":{"advertiser_id":"0","affiliate_id":"1022","offer_id":"13","ad_id":"802541544313101220","session_ip":"80.254.154.43","country_code":"DK","session_datetime":"2010-12-20 21:35:32"}},{"Stat":{"advertiser_id":"0","affiliate_id":"1022","offer_id":"13","ad_id":"901911947413101222","session_ip":"90.191.194.74","country_code":"EE","session_datetime":"2010-12-22 09:08:19"}},{"Stat":{"advertiser_id":"0","affiliate_id":"1022","offer_id":"13","ad_id":"193149105713101222","session_ip":"193.149.105.7","country_code":"FR","session_datetime":"2010-12-22 02:47:47"}},{"Stat":{"advertiser_id":"0","affiliate_id":"1022","offer_id":"13","ad_id":"85165886213101220","session_ip":"85.165.88.62","country_code":"NO","session_datetime":"2010-12-20 19:09:36"}},{"Stat":{"advertiser_id":"0","affiliate_id":"1022","offer_id":"13","ad_id":"1941722912913101223","session_ip":"194.17.229.129","country_code":"SE","session_datetime":"2010-12-23 02:28:11"}},{"Stat":{"advertiser_id":"0","affiliate_id":"1022","offer_id":"127","ad_id":"10349a538137e45fbeb1809f4ad244","session_ip":"84.48.62.128","country_code":"NO","session_datetime":"2011-10-05 02:07:51"}},{"Stat":{"advertiser_id":"0","affiliate_id":"1022","offer_id":"148","ad_id":"103641ba45e71a3e8bab6e007ce12e","session_ip":"85.19.142.63","country_code":"NO","session_datetime":"2011-10-05 00:52:12"}},{"Stat":{"advertiser_id":"0","affiliate_id":"1022","offer_id":"157","ad_id":"1033be4ca0bbbd455a213d0795b615","session_ip":"80.91.33.33","country_code":"NO","session_datetime":"2011-10-05 01:46:08"}},{"Stat":{"advertiser_id":"0","affiliate_id":"1022","offer_id":"163","ad_id":"10355d0169c03d807abdff87ad6e1e","session_ip":"85.164.228.182","country_code":"NO","session_datetime":"2011-10-05 01:14:29"}},{"Stat":{"advertiser_id":"0","affiliate_id":"1023","offer_id":"12","ad_id":"19522924117812110206","session_ip":"195.229.241.178","country_code":"AE","session_datetime":"2011-02-06 09:34:11"}},{"Stat":{"advertiser_id":"0","affiliate_id":"1023","offer_id":"12","ad_id":"1862135921712101220","session_ip":"186.213.59.217","country_code":"BR","session_datetime":"2010-12-20 16:36:03"}},{"Stat":{"advertiser_id":"0","affiliate_id":"1023","offer_id":"12","ad_id":"194138395412101217","session_ip":"194.138.39.54","country_code":"DE","session_datetime":"2010-12-17 06:02:55"}},{"Stat":{"advertiser_id":"0","affiliate_id":"1023","offer_id":"12","ad_id":"194192223312101215","session_ip":"194.192.22.33","country_code":"DK","session_datetime":"2010-12-15 15:24:10"}},{"Stat":{"advertiser_id":"0","affiliate_id":"1023","offer_id":"12","ad_id":"62878417412101220","session_ip":"62.87.84.174","country_code":"ES","session_datetime":"2010-12-20 12:33:50"}},{"Stat":{"advertiser_id":"0","affiliate_id":"1023","offer_id":"12","ad_id":"194197791812110118","session_ip":"194.197.79.18","country_code":"FI","session_datetime":"2011-01-18 03:59:56"}},{"Stat":{"advertiser_id":"0","affiliate_id":"1023","offer_id":"12","ad_id":"19357220112101229","session_ip":"193.57.220.1","country_code":"FR","session_datetime":"2010-12-29 10:10:00"}},{"Stat":{"advertiser_id":"0","affiliate_id":"1023","offer_id":"12","ad_id":"19581324912110207","session_ip":"195.81.3.249","country_code":"NL","session_datetime":"2011-02-07 04:21:06"}},{"Stat":{"advertiser_id":"0","affiliate_id":"1023","offer_id":"12","ad_id":"10918924811412101214","session_ip":"109.189.248.114","country_code":"NO","session_datetime":"2010-12-14 06:02:13"}},{"Stat":{"advertiser_id":"0","affiliate_id":"1023","offer_id":"12","ad_id":"8122422110612101228","session_ip":"81.224.221.106","country_code":"SE","session_datetime":"2010-12-28 10:45:57"}},{"Stat":{"advertiser_id":"0","affiliate_id":"1023","offer_id":"12","ad_id":"1942021404812110113","session_ip":"194.202.140.48","country_code":"UK","session_datetime":"2011-01-13 09:07:02"}},{"Stat":{"advertiser_id":"0","affiliate_id":"1023","offer_id":"13","ad_id":"87248412613110208","session_ip":"87.248.4.126","country_code":"NO","session_datetime":"2011-02-08 05:55:06"}},{"Stat":{"advertiser_id":"0","affiliate_id":"1023","offer_id":"13","ad_id":"19318018915813110208","session_ip":"193.180.189.158","country_code":"SE","session_datetime":"2011-02-08 06:04:46"}},{"Stat":{"advertiser_id":"0","affiliate_id":"1023","offer_id":"13","ad_id":"15322463213110208","session_ip":"153.2.246.32","country_code":"US","session_datetime":"2011-02-08 07:07:04"}},{"Stat":{"advertiser_id":"0","affiliate_id":"1023","offer_id":"24","ad_id":"1931611201524101215","session_ip":"193.161.120.15","country_code":"NO","session_datetime":"2010-12-15 09:08:00"}},{"Stat":{"advertiser_id":"0","affiliate_id":"1034","offer_id":"12","ad_id":"12952799859741949014770","session_ip":"194.90.147.70","country_code":"IL","session_datetime":"2011-01-17 10:59:45"}},{"Stat":{"advertiser_id":"0","affiliate_id":"1039","offer_id":"125","ad_id":"102535453723062904846c02d961c7","session_ip":"80.213.146.236","country_code":"NO","session_datetime":"2012-04-25 21:56:17"}},{"Stat":{"advertiser_id":"0","affiliate_id":"1039","offer_id":"154","ad_id":"102fe8c8730ee5bdf4280a9dcf5c96","session_ip":"109.65.115.186","country_code":"IL","session_datetime":"2012-05-20 08:01:22"}},{"Stat":{"advertiser_id":"0","affiliate_id":"1039","offer_id":"167","ad_id":"1021279ea635cb0721d674ec2d426a","session_ip":"89.184.142.249","country_code":"DK","session_datetime":"2012-04-24 13:17:50"}},{"Stat":{"advertiser_id":"0","affiliate_id":"1039","offer_id":"207","ad_id":"1023e661aaa785b185de47d4d3a028","session_ip":"77.88.70.40","country_code":"NO","session_datetime":"2012-05-18 07:52:04"}},{"Stat":{"advertiser_id":"0","affiliate_id":"1039","offer_id":"410","ad_id":"102c830ed08de65d845e653d231136","session_ip":"80.254.146.140","country_code":"554","session_datetime":"2012-04-11 04:57:05"}},{"Stat":{"advertiser_id":"0","affiliate_id":"1039","offer_id":"462","ad_id":"10261c5662ad55028e86f076713c7b","session_ip":"186.82.173.229","country_code":"434","session_datetime":"2012-04-08 19:25:29"}},{"Stat":{"advertiser_id":"0","affiliate_id":"1039","offer_id":"462","ad_id":"102d1e83aa5dd1b3fb9265a9e63fd0","session_ip":"186.169.193.73","country_code":"CO","session_datetime":"2012-04-06 12:47:43"}},{"Stat":{"advertiser_id":"0","affiliate_id":"1039","offer_id":"470","ad_id":"102e34689228d77713e6ea06d07dc7","session_ip":"200.85.30.95","country_code":"SV","session_datetime":"2012-05-24 00:42:09"}},{"Stat":{"advertiser_id":"0","affiliate_id":"1039","offer_id":"534","ad_id":"1025e50ce62c452e0d4bad7df9dd95","session_ip":"108.176.92.91","country_code":"US","session_datetime":"2012-05-24 07:04:20"}},{"Stat":{"advertiser_id":"0","affiliate_id":"1039","offer_id":"658","ad_id":"102f5d9e099c19c1ddb28d7a39a108","session_ip":"212.183.128.51","country_code":"UK","session_datetime":"2012-04-26 17:47:02"}},{"Stat":{"advertiser_id":"0","affiliate_id":"1049","offer_id":"154","ad_id":"10210ae1fe7afa47ddb45e071a46b7","session_ip":"46.116.58.242","country_code":"IL","session_datetime":"2012-09-28 14:28:33"}},{"Stat":{"advertiser_id":"0","affiliate_id":"1052","offer_id":"4","ad_id":"12945661499151949014770","session_ip":"194.90.147.70","country_code":"IL","session_datetime":"2011-01-09 04:42:29"}},{"Stat":{"advertiser_id":"0","affiliate_id":"1052","offer_id":"39","ad_id":"12949148476561949014770","session_ip":"194.90.147.70","country_code":"IL","session_datetime":"2011-01-13 05:34:07"}},{"Stat":{"advertiser_id":"0","affiliate_id":"1061","offer_id":"53","ad_id":"022bb6e19c687901a3d960233b7386","session_ip":"95.35.254.125","country_code":"IL","session_datetime":"2011-04-11 15:22:35"}},{"Stat":{"advertiser_id":"0","affiliate_id":"1065","offer_id":"39","ad_id":"0f42805a2b293e8af8101675e27300","session_ip":"194.90.147.70","country_code":"IL","session_datetime":"2011-03-22 09:40:29"}},{"Stat":{"advertiser_id":"0","affiliate_id":"1072","offer_id":"12","ad_id":"1941587022312110216","session_ip":"194.158.70.223","country_code":"AD","session_datetime":"2011-02-16 02:13:52"}},{"Stat":{"advertiser_id":"0","affiliate_id":"1072","offer_id":"12","ad_id":"1952292426012110215","session_ip":"195.229.242.60","country_code":"AE","session_datetime":"2011-02-15 14:23:01"}},{"Stat":{"advertiser_id":"0","affiliate_id":"1072","offer_id":"12","ad_id":"1943787112110125","session_ip":"194.37.87.1","country_code":"AT","session_datetime":"2011-01-25 10:53:56"}},{"Stat":{"advertiser_id":"0","affiliate_id":"1072","offer_id":"12","ad_id":"8419811522412110223","session_ip":"84.198.115.224","country_code":"BE","session_datetime":"2011-02-23 09:15:37"}},{"Stat":{"advertiser_id":"0","affiliate_id":"1072","offer_id":"12","ad_id":"9423616213712110224","session_ip":"94.236.162.137","country_code":"BG","session_datetime":"2011-02-24 14:42:54"}},{"Stat":{"advertiser_id":"0","affiliate_id":"1072","offer_id":"12","ad_id":"2001406514012110121","session_ip":"200.140.65.140","country_code":"BR","session_datetime":"2011-01-21 05:29:57"}}],"dbSource":"branddb"},"errors":[],"errorMessage":null}}

